<?xml version="1.0" encoding="utf-8"?>
<!-- Generator: Adobe Illustrator 21.0.0, SVG Export Plug-In . SVG Version: 6.00 Build 0)  -->
<svg version="1.1" id="Layer_1" xmlns="http://www.w3.org/2000/svg" xmlns:xlink="http://www.w3.org/1999/xlink" x="0px" y="0px" width="58.1" height="57.8"
	 viewBox="0 0 58.1 57.8" style="enable-background:new 0 0 58.1 57.8;" xml:space="preserve">
<style type="text/css">
	.st0{fill:none;stroke:#3C7BBF;stroke-width:3;stroke-miterlimit:10;}
	.st1{fill:#3C7BBF;}
</style>
<circle class="st0" cx="29.3" cy="28.9" r="27"/>
<polygon class="st1" points="27.6,18.1 31,18.1 31,28 40.9,28 40.9,31.4 31,31.4 31,41.3 27.6,41.3 27.6,31.4 17.7,31.4 17.7,28 
	27.6,28 "/>
</svg>
